{
  "providerId": "Microsoft.Tools.ServiceModel.Svcutil",
  "version": "2.0.1",
  "options": {
    "inputs": [
      "https://tt02.altinn.no/ServiceEngineExternal/PreFillBasic.svc?wsdl"
    ],
    "namespaceMappings": [
      "*, AltinnWebServices.WS.Prefill"
    ],
    "outputFile": "Prefill.cs",
    "targetFramework": "netcoreapp3.1",
    "typeReuseMode": "All"
  }
}