[
  {
    "country": "Afghanistan",
    "iso": "AF",
    "ssb": "404"
  },
  {
    "country": "Åland",
    "iso": "AX",
    "ssb": null
  },
  {
    "country": "Albania",
    "iso": "AL",
    "ssb": "111"
  },
  {
    "country": "Algerie",
    "iso": "DZ",
    "ssb": "203"
  },
  {
    "country": "Amerikansk Samoa",
    "iso": "AS",
    "ssb": "802"
  },
  {
    "country": "Andorra",
    "iso": "AD",
    "ssb": "114"
  },
  {
    "country": "Angola",
    "iso": "AO",
    "ssb": "204"
  },
  {
    "country": "Anguilla",
    "iso": "AI",
    "ssb": "660"
  },
  {
    "country": "Antarktis",
    "iso": "AQ",
    "ssb": null
  },
  {
    "country": "Antigua og Barbuda",
    "iso": "AG",
    "ssb": "603"
  },
  {
    "country": "Argentina",
    "iso": "AR",
    "ssb": "705"
  },
  {
    "country": "Armenia",
    "iso": "AM",
    "ssb": "406"
  },
  {
    "country": "Aruba",
    "iso": "AW",
    "ssb": "657"
  },
  {
    "country": "Aserbajdsjan",
    "iso": "AZ",
    "ssb": "407"
  },
  {
    "country": "Australia",
    "iso": "AU",
    "ssb": "805"
  },
  {
    "country": "Bahamas",
    "iso": "BS",
    "ssb": "605"
  },
  {
    "country": "Bahrain",
    "iso": "BH",
    "ssb": "409"
  },
  {
    "country": "Bangladesh",
    "iso": "BD",
    "ssb": "410"
  },
  {
    "country": "Barbados",
    "iso": "BB",
    "ssb": "602"
  },
  {
    "country": "Belgia",
    "iso": "BE",
    "ssb": "112"
  },
  {
    "country": "Belize",
    "iso": "BZ",
    "ssb": "604"
  },
  {
    "country": "Benin",
    "iso": "BJ",
    "ssb": "229"
  },
  {
    "country": "Bermuda",
    "iso": "BM",
    "ssb": "606"
  },
  {
    "country": "Bhutan",
    "iso": "BT",
    "ssb": "412"
  },
  {
    "country": "Bolivia",
    "iso": "BO",
    "ssb": "710"
  },
  {
    "country": "Bonaire, Sint Eustatius og Saba",
    "iso": "BQ",
    "ssb": "659"
  },
  {
    "country": "Bosnia-Hercegovina",
    "iso": "BA",
    "ssb": "155"
  },
  {
    "country": "Botswana",
    "iso": "BW",
    "ssb": "205"
  },
  {
    "country": "Bouvetøya",
    "iso": "BV",
    "ssb": null
  },
  {
    "country": "Brasil",
    "iso": "BR",
    "ssb": "715"
  },
  {
    "country": "Brunei Darussalam",
    "iso": "BN",
    "ssb": null
  },
  {
    "country": "Bulgaria",
    "iso": "BG",
    "ssb": "113"
  },
  {
    "country": "Burkina Faso",
    "iso": "BF",
    "ssb": "393"
  },
  {
    "country": "Burundi",
    "iso": "BI",
    "ssb": "216"
  },
  {
    "country": "Canada",
    "iso": "CA",
    "ssb": "612"
  },
  {
    "country": "Caymanøyene",
    "iso": "KY",
    "ssb": "613"
  },
  {
    "country": "Ceuta og Melilla",
    "iso": "XC",
    "ssb": null
  },
  {
    "country": "Chile",
    "iso": "CL",
    "ssb": "725"
  },
  {
    "country": "Christmasøya",
    "iso": "CX",
    "ssb": "807"
  },
  {
    "country": "Colombia",
    "iso": "CO",
    "ssb": "730"
  },
  {
    "country": "Cookøyene",
    "iso": "CK",
    "ssb": "809"
  },
  {
    "country": "Costa Rica",
    "iso": "CR",
    "ssb": "616"
  },
  {
    "country": "Cuba",
    "iso": "CU",
    "ssb": "620"
  },
  {
    "country": "Curacao",
    "iso": "CW",
    "ssb": null
  },
  {
    "country": "Danmark",
    "iso": "DK",
    "ssb": "101"
  },
  {
    "country": "De forente arabiske emirater",
    "iso": "AE",
    "ssb": "426"
  },
  {
    "country": "Den dominikanske republikk",
    "iso": "DO",
    "ssb": "624"
  },
  {
    "country": "Den sentralafrikanske republikk",
    "iso": "CF",
    "ssb": "337"
  },
  {
    "country": "Det Britiske terr. i Indiahavet",
    "iso": "IO",
    "ssb": null
  },
  {
    "country": "Djibouti",
    "iso": "DJ",
    "ssb": "250"
  },
  {
    "country": "Dominica",
    "iso": "DM",
    "ssb": "622"
  },
  {
    "country": "Ecuador",
    "iso": "EC",
    "ssb": "735"
  },
  {
    "country": "Egypt",
    "iso": "EG",
    "ssb": "249"
  },
  {
    "country": "Ekvatorial-Guinea",
    "iso": "GQ",
    "ssb": "235"
  },
  {
    "country": "El Salvador",
    "iso": "SV",
    "ssb": "672"
  },
  {
    "country": "Elfenbenskysten",
    "iso": "CI",
    "ssb": null
  },
  {
    "country": "Eritrea",
    "iso": "ER",
    "ssb": "241"
  },
  {
    "country": "Estland",
    "iso": "EE",
    "ssb": "115"
  },
  {
    "country": "Eswatini",
    "iso": "SZ",
    "ssb": "357"
  },
  {
    "country": "Etiopia",
    "iso": "ET",
    "ssb": "246"
  },
  {
    "country": "Færøyene",
    "iso": "FO",
    "ssb": "104"
  },
  {
    "country": "Falklandsøyene (Malvinas)",
    "iso": "FK",
    "ssb": null
  },
  {
    "country": "Fiji",
    "iso": "FJ",
    "ssb": "811"
  },
  {
    "country": "Filippinene",
    "iso": "PH",
    "ssb": "428"
  },
  {
    "country": "Finland",
    "iso": "FI",
    "ssb": "103"
  },
  {
    "country": "Frankrike",
    "iso": "FR",
    "ssb": "117"
  },
  {
    "country": "Fransk Guyana",
    "iso": "GF",
    "ssb": "745"
  },
  {
    "country": "Fransk Polynesia",
    "iso": "PF",
    "ssb": "814"
  },
  {
    "country": "Franske Sørlige Territorier",
    "iso": "TF",
    "ssb": null
  },
  {
    "country": "Gabon",
    "iso": "GA",
    "ssb": "254"
  },
  {
    "country": "Gambia",
    "iso": "GM",
    "ssb": "256"
  },
  {
    "country": "Georgia",
    "iso": "GE",
    "ssb": "430"
  },
  {
    "country": "Ghana",
    "iso": "GH",
    "ssb": "260"
  },
  {
    "country": "Gibraltar",
    "iso": "GI",
    "ssb": "118"
  },
  {
    "country": "Grenada",
    "iso": "GD",
    "ssb": "629"
  },
  {
    "country": "Grønland",
    "iso": "GL",
    "ssb": "102"
  },
  {
    "country": "Guadeloupe",
    "iso": "GP",
    "ssb": "631"
  },
  {
    "country": "Guam",
    "iso": "GU",
    "ssb": "817"
  },
  {
    "country": "Guatemala",
    "iso": "GT",
    "ssb": "632"
  },
  {
    "country": "Guernsey",
    "iso": "GG",
    "ssb": "162"
  },
  {
    "country": "Guinea",
    "iso": "GN",
    "ssb": "264"
  },
  {
    "country": "Guinea-Bissau",
    "iso": "GW",
    "ssb": "266"
  },
  {
    "country": "Guyana",
    "iso": "GY",
    "ssb": "720"
  },
  {
    "country": "Haiti",
    "iso": "HT",
    "ssb": "636"
  },
  {
    "country": "Heard- og McDonaldøyene",
    "iso": "HM",
    "ssb": null
  },
  {
    "country": "Hellas",
    "iso": "GR",
    "ssb": "119"
  },
  {
    "country": "Honduras",
    "iso": "HN",
    "ssb": "644"
  },
  {
    "country": "Hongkong",
    "iso": "HK",
    "ssb": "436"
  },
  {
    "country": "Hviterussland",
    "iso": "BY",
    "ssb": "120"
  },
  {
    "country": "India",
    "iso": "IN",
    "ssb": "444"
  },
  {
    "country": "Indonesia",
    "iso": "ID",
    "ssb": "448"
  },
  {
    "country": "Irak",
    "iso": "IQ",
    "ssb": "452"
  },
  {
    "country": "Iran",
    "iso": "IR",
    "ssb": "456"
  },
  {
    "country": "Irland",
    "iso": "IE",
    "ssb": "121"
  },
  {
    "country": "Island",
    "iso": "IS",
    "ssb": "105"
  },
  {
    "country": "Isle of Man",
    "iso": "IM",
    "ssb": null
  },
  {
    "country": "Israel",
    "iso": "IL",
    "ssb": "460"
  },
  {
    "country": "Italia",
    "iso": "IT",
    "ssb": "123"
  },
  {
    "country": "Jamaica",
    "iso": "JM",
    "ssb": "648"
  },
  {
    "country": "Japan",
    "iso": "JP",
    "ssb": "464"
  },
  {
    "country": "Jemen",
    "iso": "YE",
    "ssb": "578"
  },
  {
    "country": "Jersey",
    "iso": "JE",
    "ssb": "163"
  },
  {
    "country": "Jomfruøyene, Britisk",
    "iso": "VG",
    "ssb": null
  },
  {
    "country": "Jomfruøyene, US",
    "iso": "VI",
    "ssb": null
  },
  {
    "country": "Jordan",
    "iso": "JO",
    "ssb": "476"
  },
  {
    "country": "Kambodsja",
    "iso": "KH",
    "ssb": "478"
  },
  {
    "country": "Kamerun",
    "iso": "CM",
    "ssb": "270"
  },
  {
    "country": "Kanariøyene",
    "iso": "XB",
    "ssb": null
  },
  {
    "country": "Kapp Verde",
    "iso": "CV",
    "ssb": "273"
  },
  {
    "country": "Kasakhstan",
    "iso": "KZ",
    "ssb": "480"
  },
  {
    "country": "Kenya",
    "iso": "KE",
    "ssb": "276"
  },
  {
    "country": "Kina",
    "iso": "CN",
    "ssb": "484"
  },
  {
    "country": "Kirgisistan",
    "iso": "KG",
    "ssb": "502"
  },
  {
    "country": "Kiribati",
    "iso": "KI",
    "ssb": "815"
  },
  {
    "country": "Kokosøyene (Keelingøyene)",
    "iso": "CC",
    "ssb": null
  },
  {
    "country": "Komorene",
    "iso": "KM",
    "ssb": "220"
  },
  {
    "country": "Kongo",
    "iso": "CD",
    "ssb": "279"
  },
  {
    "country": "Kongo-Brazzaville",
    "iso": "CG",
    "ssb": "278"
  },
  {
    "country": "Kosovo",
    "iso": "XK",
    "ssb": "161"
  },
  {
    "country": "Kroatia",
    "iso": "HR",
    "ssb": "122"
  },
  {
    "country": "Kuwait",
    "iso": "KW",
    "ssb": "496"
  },
  {
    "country": "Kypros",
    "iso": "CY",
    "ssb": "500"
  },
  {
    "country": "Laos",
    "iso": "LA",
    "ssb": "504"
  },
  {
    "country": "Latvia",
    "iso": "LV",
    "ssb": "124"
  },
  {
    "country": "Lesotho",
    "iso": "LS",
    "ssb": "281"
  },
  {
    "country": "Libanon",
    "iso": "LB",
    "ssb": "508"
  },
  {
    "country": "Liberia",
    "iso": "LR",
    "ssb": "283"
  },
  {
    "country": "Libya",
    "iso": "LY",
    "ssb": "286"
  },
  {
    "country": "Liechtenstein",
    "iso": "LI",
    "ssb": "128"
  },
  {
    "country": "Litauen",
    "iso": "LT",
    "ssb": "136"
  },
  {
    "country": "Luxembourg",
    "iso": "LU",
    "ssb": "129"
  },
  {
    "country": "Macao",
    "iso": "MO",
    "ssb": "510"
  },
  {
    "country": "Madagaskar",
    "iso": "MG",
    "ssb": "289"
  },
  {
    "country": "Malawi",
    "iso": "MW",
    "ssb": "296"
  },
  {
    "country": "Malaysia",
    "iso": "MY",
    "ssb": "512"
  },
  {
    "country": "Maldivene",
    "iso": "MV",
    "ssb": "513"
  },
  {
    "country": "Mali",
    "iso": "ML",
    "ssb": "299"
  },
  {
    "country": "Malta",
    "iso": "MT",
    "ssb": "126"
  },
  {
    "country": "Marokko",
    "iso": "MA",
    "ssb": "303"
  },
  {
    "country": "Marshalløyene",
    "iso": "MH",
    "ssb": "835"
  },
  {
    "country": "Martinique",
    "iso": "MQ",
    "ssb": "650"
  },
  {
    "country": "Mauritania",
    "iso": "MR",
    "ssb": "306"
  },
  {
    "country": "Mauritius",
    "iso": "MU",
    "ssb": "307"
  },
  {
    "country": "Mayotte",
    "iso": "YT",
    "ssb": "322"
  },
  {
    "country": "Mexico",
    "iso": "MX",
    "ssb": "652"
  },
  {
    "country": "Mikronesiaføderasjonen",
    "iso": "FM",
    "ssb": "826"
  },
  {
    "country": "Moldova",
    "iso": "MD",
    "ssb": "138"
  },
  {
    "country": "Monaco",
    "iso": "MC",
    "ssb": "130"
  },
  {
    "country": "Mongolia",
    "iso": "MN",
    "ssb": "516"
  },
  {
    "country": "Montenegro",
    "iso": "ME",
    "ssb": "160"
  },
  {
    "country": "Montserrat",
    "iso": "MS",
    "ssb": "654"
  },
  {
    "country": "Mosambik",
    "iso": "MZ",
    "ssb": "319"
  },
  {
    "country": "Myanmar/Burma",
    "iso": "MM",
    "ssb": null
  },
  {
    "country": "Namibia",
    "iso": "NA",
    "ssb": "308"
  },
  {
    "country": "Nauru",
    "iso": "NR",
    "ssb": "818"
  },
  {
    "country": "Nederland",
    "iso": "NL",
    "ssb": "127"
  },
  {
    "country": "Nepal",
    "iso": "NP",
    "ssb": "528"
  },
  {
    "country": "New Zealand",
    "iso": "NZ",
    "ssb": "820"
  },
  {
    "country": "Nicaragua",
    "iso": "NI",
    "ssb": "664"
  },
  {
    "country": "Niger",
    "iso": "NE",
    "ssb": "309"
  },
  {
    "country": "Nigeria",
    "iso": "NG",
    "ssb": "313"
  },
  {
    "country": "Niue",
    "iso": "NU",
    "ssb": "821"
  },
  {
    "country": "Nord-Korea",
    "iso": "KP",
    "ssb": "488"
  },
  {
    "country": "Nord-Makedonia",
    "iso": "MK",
    "ssb": "156"
  },
  {
    "country": "Nord-Marianene",
    "iso": "MP",
    "ssb": "840"
  },
  {
    "country": "Norfolkøya",
    "iso": "NF",
    "ssb": "822"
  },
  {
    "country": "Norge",
    "iso": "NO",
    "ssb": "000"
  },
  {
    "country": "Ny-Caledonia",
    "iso": "NC",
    "ssb": "833"
  },
  {
    "country": "Oman",
    "iso": "OM",
    "ssb": "520"
  },
  {
    "country": "Øst-Timor",
    "iso": "TL",
    "ssb": "537"
  },
  {
    "country": "Østerrike",
    "iso": "AT",
    "ssb": "153"
  },
  {
    "country": "Pakistan",
    "iso": "PK",
    "ssb": "534"
  },
  {
    "country": "Palau",
    "iso": "PW",
    "ssb": "839"
  },
  {
    "country": "Palestina",
    "iso": "PS",
    "ssb": "524"
  },
  {
    "country": "Panama",
    "iso": "PA",
    "ssb": "668"
  },
  {
    "country": "Papua Ny-Guinea",
    "iso": "PG",
    "ssb": "827"
  },
  {
    "country": "Paraguay",
    "iso": "PY",
    "ssb": "755"
  },
  {
    "country": "Peru",
    "iso": "PE",
    "ssb": "760"
  },
  {
    "country": "Pitcairn",
    "iso": "PN",
    "ssb": "828"
  },
  {
    "country": "Polen",
    "iso": "PL",
    "ssb": "131"
  },
  {
    "country": "Portugal",
    "iso": "PT",
    "ssb": "132"
  },
  {
    "country": "Puerto Rico",
    "iso": "PR",
    "ssb": "685"
  },
  {
    "country": "Qatar",
    "iso": "QA",
    "ssb": "540"
  },
  {
    "country": "Reunion",
    "iso": "RE",
    "ssb": null
  },
  {
    "country": "Romania",
    "iso": "RO",
    "ssb": "133"
  },
  {
    "country": "Russland",
    "iso": "RU",
    "ssb": "140"
  },
  {
    "country": "Rwanda",
    "iso": "RW",
    "ssb": "329"
  },
  {
    "country": "Saint Barthelemy",
    "iso": "BL",
    "ssb": null
  },
  {
    "country": "Saint Kitts og Nevis",
    "iso": "KN",
    "ssb": "677"
  },
  {
    "country": "Saint Lucia",
    "iso": "LC",
    "ssb": "678"
  },
  {
    "country": "Saint Pierre og Miquelon",
    "iso": "PM",
    "ssb": null
  },
  {
    "country": "Saint Vincent og Grenadinene",
    "iso": "VC",
    "ssb": "679"
  },
  {
    "country": "Saint-Martin, FR",
    "iso": "MF",
    "ssb": null
  },
  {
    "country": "Salomonøyene",
    "iso": "SB",
    "ssb": "806"
  },
  {
    "country": "Samoa",
    "iso": "WS",
    "ssb": "830"
  },
  {
    "country": "San Marino",
    "iso": "SM",
    "ssb": "134"
  },
  {
    "country": "Sao Tome og Principe",
    "iso": "ST",
    "ssb": null
  },
  {
    "country": "Saudi-Arabia",
    "iso": "SA",
    "ssb": "544"
  },
  {
    "country": "Senegal",
    "iso": "SN",
    "ssb": "336"
  },
  {
    "country": "Serbia",
    "iso": "RS",
    "ssb": "159"
  },
  {
    "country": "Seychellene",
    "iso": "SC",
    "ssb": "338"
  },
  {
    "country": "Sierra Leone",
    "iso": "SL",
    "ssb": "339"
  },
  {
    "country": "Singapore",
    "iso": "SG",
    "ssb": "548"
  },
  {
    "country": "Sint Marteen, NL",
    "iso": "SX",
    "ssb": null
  },
  {
    "country": "Slovakia",
    "iso": "SK",
    "ssb": "157"
  },
  {
    "country": "Slovenia",
    "iso": "SI",
    "ssb": "146"
  },
  {
    "country": "Somalia",
    "iso": "SO",
    "ssb": "346"
  },
  {
    "country": "Sør-Afrika",
    "iso": "ZA",
    "ssb": "359"
  },
  {
    "country": "Sør-Georgia/Sør-Sandwichøyene",
    "iso": "GS",
    "ssb": null
  },
  {
    "country": "Sør-Korea",
    "iso": "KR",
    "ssb": "492"
  },
  {
    "country": "Sør-Sudan",
    "iso": "SS",
    "ssb": "355"
  },
  {
    "country": "Spania",
    "iso": "ES",
    "ssb": "137"
  },
  {
    "country": "Sri Lanka",
    "iso": "LK",
    "ssb": "424"
  },
  {
    "country": "St. Helena",
    "iso": "SH",
    "ssb": "209"
  },
  {
    "country": "Storbritannia",
    "iso": "GB",
    "ssb": "139"
  },
  {
    "country": "Sudan",
    "iso": "SD",
    "ssb": "356"
  },
  {
    "country": "Surinam",
    "iso": "SR",
    "ssb": "765"
  },
  {
    "country": "Sveits",
    "iso": "CH",
    "ssb": "141"
  },
  {
    "country": "Sverige",
    "iso": "SE",
    "ssb": "106"
  },
  {
    "country": "Syria",
    "iso": "SY",
    "ssb": "564"
  },
  {
    "country": "Tadsjikistan",
    "iso": "TJ",
    "ssb": "550"
  },
  {
    "country": "Taiwan",
    "iso": "TW",
    "ssb": "432"
  },
  {
    "country": "Tanzania",
    "iso": "TZ",
    "ssb": "369"
  },
  {
    "country": "Thailand",
    "iso": "TH",
    "ssb": "568"
  },
  {
    "country": "Togo",
    "iso": "TG",
    "ssb": "376"
  },
  {
    "country": "Tokelau",
    "iso": "TK",
    "ssb": "829"
  },
  {
    "country": "Tonga",
    "iso": "TO",
    "ssb": "813"
  },
  {
    "country": "Trinidad og Tobago",
    "iso": "TT",
    "ssb": "680"
  },
  {
    "country": "Tsjad",
    "iso": "TD",
    "ssb": "373"
  },
  {
    "country": "Tsjekkia",
    "iso": "CZ",
    "ssb": "158"
  },
  {
    "country": "Tunisia",
    "iso": "TN",
    "ssb": "379"
  },
  {
    "country": "Turkmenistan",
    "iso": "TM",
    "ssb": "552"
  },
  {
    "country": "Turks- og Caicosøyene",
    "iso": "TC",
    "ssb": "681"
  },
  {
    "country": "Tuvalu",
    "iso": "TV",
    "ssb": "816"
  },
  {
    "country": "Tyrkia",
    "iso": "TR",
    "ssb": "143"
  },
  {
    "country": "Tyskland",
    "iso": "DE",
    "ssb": "144"
  },
  {
    "country": "Uganda",
    "iso": "UG",
    "ssb": "386"
  },
  {
    "country": "Ukraina",
    "iso": "UA",
    "ssb": "148"
  },
  {
    "country": "Ungarn",
    "iso": "HU",
    "ssb": "152"
  },
  {
    "country": "Uruguay",
    "iso": "UY",
    "ssb": "770"
  },
  {
    "country": "USA",
    "iso": "US",
    "ssb": "684"
  },
  {
    "country": "USAs ytre småøyer",
    "iso": "UM",
    "ssb": "819"
  },
  {
    "country": "Usbekistan",
    "iso": "UZ",
    "ssb": "554"
  },
  {
    "country": "Vanuatu",
    "iso": "VU",
    "ssb": "812"
  },
  {
    "country": "Vatikanstaten",
    "iso": "VA",
    "ssb": "154"
  },
  {
    "country": "Venezuela",
    "iso": "VE",
    "ssb": "775"
  },
  {
    "country": "Vest-Sahara",
    "iso": "EH",
    "ssb": "304"
  },
  {
    "country": "Vietnam",
    "iso": "VN",
    "ssb": "575"
  },
  {
    "country": "Wallis- og Futunaøyene",
    "iso": "WF",
    "ssb": "832"
  },
  {
    "country": "Zambia",
    "iso": "ZM",
    "ssb": "389"
  },
  {
    "country": "Zimbabwe",
    "iso": "ZW",
    "ssb": "326"
  }
]